info face="Verdana" size=100 bold=1 italic=0 charset="" unicode=1 stretchH=100 smooth=1 aa=1 padding=10,10,10,10 spacing=5,5 outline=0
common lineHeight=100 base=83 scaleW=512 scaleH=512 pages=1 packed=0 alphaChnl=0 redChnl=4 greenChnl=4 blueChnl=4
page id=0 file="ToonblastSampleDigits_0.png"
chars count=10
char id=48   x=156   y=0     width=71    height=120   xoffset=-6    yoffset=-10   xadvance=59    page=0  chnl=15
char id=49   x=219   y=125   width=62    height=120   xoffset=0     yoffset=-10   xadvance=59    page=0  chnl=15
char id=50   x=0     y=125   width=68    height=120   xoffset=-3    yoffset=-10   xadvance=59    page=0  chnl=15
char id=51   x=383   y=0     width=69    height=120   xoffset=-5    yoffset=-10   xadvance=59    page=0  chnl=15
char id=52   x=0     y=0     width=73    height=120   xoffset=-7    yoffset=-10   xadvance=59    page=0  chnl=15
char id=53   x=73    y=125   width=68    height=120   xoffset=-4    yoffset=-10   xadvance=59    page=0  chnl=15
char id=54   x=232   y=0     width=71    height=120   xoffset=-5    yoffset=-10   xadvance=59    page=0  chnl=15
char id=55   x=146   y=125   width=68    height=120   xoffset=-4    yoffset=-10   xadvance=59    page=0  chnl=15
char id=56   x=78    y=0     width=73    height=120   xoffset=-7    yoffset=-10   xadvance=59    page=0  chnl=15
char id=57   x=308   y=0     width=70    height=120   xoffset=-6    yoffset=-10   xadvance=59    page=0  chnl=15
